{
    "IconInfo": {
        "3000027": {
            "IconId": 3000027
        },
        "3000030": {
            "IconId": 3000030
        },
        "3000042": {
            "IconId": 3000042
        },
        "3000048": {
            "IconId": 3000048
        }
    }
}