{
    "userid": 10000666,
    "Icon": 0,
    "Card": 0,
    "Name": "修改任意名字",
    "Sign": "",
    "PlayerLevel": 1,
    "PlayerExp": 0,
    "WorldLevel": 1,
    "WorldLevelNow": 1,
    "WorldLevelCool": 0,
    "Birth": 311,
    "ShowTeam": null,
    "HideShowTeam": 0,
    "ShowCard": [
        1,
        2,
        3,
        4,
        1,
        2,
        3,
        4,
        1,
        2,
        3,
        4,
        1,
        2,
        3,
        4,
        1,
        2,
        3,
        4,
        1,
        2,
        3,
        4,
        1,
        2,
        3,
        4,
        1,
        2,
        3,
        4
    ],
    "Prohibit": 0,
    "IsGM": 0
}